[gd_scene load_steps=3 format=2]

[ext_resource path="res://Items/BoucArgent.png" type="Texture" id=1]

[sub_resource type="CircleShape2D" id=1]
radius = 24.5985

[node name="StaticBody2D" type="StaticBody2D" groups=[
"BoucArgent",
]]

[node name="CollisionShape2D" type="CollisionShape2D" parent="."]
position = Vector2( -0.297302, -3.83778 )
shape = SubResource( 1 )

[node name="Sprite" type="Sprite" parent="."]
scale = Vector2( 0.1, 0.1 )
texture = ExtResource( 1 )
